…
    ## # A tibble: 1 × 1
    ##   total_part
    ##        <int>
    ## 1         95

``` r
# summarizes items for all participants 
main_df %>%
  group_by(participant) %>%
  summarize(items = n())
```

    ## # A tibble: 95 × 2
    ##    participant items
    ##          <dbl> <int>
    ##  1           1    82
    ##  2           2    82
    ##  3           3    82
    ##  4           4    82
    ##  5           5    82
    ##  6           6    82
    ##  7           7    82
    ##  8           8    82
    ##  9           9    82
    ## 10          10    82
    ## # ℹ 85 more rows
…
So now I have the column which tells me how each participant assessed
each filler item. I can measure their reliability simply by counting how
good they were in the fillers. In the table below, the first participant
has mean ‘1’, so they have assessed all fillers correctly as I expected
them. If mean is lower than 80 %, a participant is unreliable.

``` r
filler_results <- fillers_only %>% 
  group_by(participant) %>%
  summarize(Mean = mean(filler_answer, na.rm=TRUE))

filler_results
```

    ## # A tibble: 95 × 2
    ##    participant  Mean
    ##          <dbl> <dbl>
    ##  1           1   1  
    ##  2           2   0.9
    ##  3           3   0.8
    ##  4           4   0.6
    ##  5           5   0.6
    ##  6           6   0.6
    ##  7           7   0.9
    ##  8           8   0.7
    ##  9           9   0.9
    ## 10          10   0.9
    ## # ℹ 85 more rows
…
