…
pol_df_e1 <- pol_df_reliable %>%
  filter(materials == "E1") 

ru_df_e1 <- ru_df_reliable %>%
  filter(materials == "e1_main") 

bind_rows( # how many items each participant made for sanity check 
  cz_df_e1 %>% count(participant, name = "items") %>% mutate(lang = "CZ"),
  pol_df_e1 %>% count(participant, name = "items") %>% mutate(lang = "POL"),
  ru_df_e1 %>% count(participant, name = "items") %>% mutate(lang = "RU") )
```

    # A tibble: 264 × 3
    # Groups:   participant [137]
       participant items lang 
             <dbl> <int> <chr>
     1           1    32 CZ   
     2           2    32 CZ   
     3           3    32 CZ   
     4           4    32 CZ   
     5           5    32 CZ   
     6           6    32 CZ   
     7           7    32 CZ   
     8          10    32 CZ   
     9          11    32 CZ   
    10          12    32 CZ   
    # ℹ 254 more rows
…
