Cz, Pol, Ru descriptive stat in one
…
# bad fillers
fillers_only$filler_answer[which(grepl('bad', fillers_only$condition) &
                                grepl('1|2|3', fillers_only$rating1))] <- 1

# good fillers 
fillers_only$filler_answer[which(grepl('good', fillers_only$condition) &
                                grepl('5|6|7', fillers_only$rating1))] <- 1

filler_results <- fillers_only %>% 
  group_by(participant) %>%
  summarize(Mean = mean(filler_answer, na.rm=TRUE))

filler_results

# A tibble: 95 × 2
   participant  Mean
         <dbl> <dbl>
 1           1   1  
 2           2   0.9
 3           3   0.8
 4           4   0.6
 5           5   0.6
 6           6   0.6
 7           7   0.9
 8           8   0.7
 9           9   0.9
10          10   0.9
# ℹ 85 more rows
…
cz_df_e1 <- cz_df_reliable %>%
  filter(materials == "qb_E1_main") 

pol_df_e1 <- pol_df_reliable %>%
  filter(materials == "E1") 

ru_df_e1 <- ru_df_reliable %>%
  filter(materials == "e1_main") 

bind_rows( # how many items each participant made for sanity check 
  cz_df_e1 %>% count(participant, name = "items") %>% mutate(lang = "CZ"),
  pol_df_e1 %>% count(participant, name = "items") %>% mutate(lang = "POL"),
  ru_df_e1 %>% count(participant, name = "items") %>% mutate(lang = "RU") )

# A tibble: 264 × 3
# Groups:   participant [137]
   participant items lang 
         <dbl> <int> <chr>
 1           1    32 CZ   
 2           2    32 CZ   
 3           3    32 CZ   
 4           4    32 CZ   
 5           5    32 CZ   
 6           6    32 CZ   
 7           7    32 CZ   
 8          10    32 CZ   
 9          11    32 CZ   
10          12    32 CZ   
# ℹ 254 more rows
…
