…
    ## # A tibble: 1 × 1
    ##   total_part
    ##        <int>
    ## 1         95

``` r
# summarizes items for all participants 
main_df %>%
  group_by(participant) %>%
  summarize(items = n())
```

    ## # A tibble: 95 × 2
    ##    participant items
    ##          <dbl> <int>
    ##  1           1    82
    ##  2           2    82
    ##  3           3    82
    ##  4           4    82
    ##  5           5    82
    ##  6           6    82
    ##  7           7    82
    ##  8           8    82
    ##  9           9    82
    ## 10          10    82
    ## # ℹ 85 more rows
…
